<svg xmlns="http://www.w3.org/2000/svg" width="35.03" height="31.03" viewBox="0 0 35.03 31.03">
  <defs>
    <style>
      .cls-1 {
        fill: #fff;
        fill-rule: evenodd;
      }
    </style>
  </defs>
  <path id="camera" class="cls-1" d="M7156.26,1753.9a5.23,5.23,0,0,0,1.54,3.8,5.18,5.18,0,0,0,7.43,0,5.458,5.458,0,0,0,0-7.6,5.18,5.18,0,0,0-7.43,0A5.23,5.23,0,0,0,7156.26,1753.9Zm14.02-13.14-0.93-2.53a3.538,3.538,0,0,0-1.27-1.58,3.238,3.238,0,0,0-1.89-.66h-9.34a3.193,3.193,0,0,0-1.89.66,3.409,3.409,0,0,0-1.27,1.58l-0.93,2.53h-4.09a4.452,4.452,0,0,0-3.3,1.4,4.641,4.641,0,0,0-1.37,3.38v16.72a4.641,4.641,0,0,0,1.37,3.38,4.452,4.452,0,0,0,3.3,1.4h25.69a4.49,4.49,0,0,0,3.31-1.4,4.672,4.672,0,0,0,1.36-3.38v-16.72a4.672,4.672,0,0,0-1.36-3.38,4.49,4.49,0,0,0-3.31-1.4h-4.08Zm-16.94,13.14a8.161,8.161,0,0,1,2.4-5.91,8.031,8.031,0,0,1,11.55,0,8.477,8.477,0,0,1,0,11.82,8.031,8.031,0,0,1-11.55,0A8.161,8.161,0,0,1,7153.34,1753.9Z" transform="translate(-7144 -1736)"/>
</svg>
