<?xml version="1.0" encoding="utf-8"?>
<!-- Generator: Adobe Illustrator 19.2.1, SVG Export Plug-In . SVG Version: 6.00 Build 0)  -->
<svg version="1.1" id="Layer_1" xmlns="http://www.w3.org/2000/svg" xmlns:xlink="http://www.w3.org/1999/xlink" x="0px" y="0px"
	 viewBox="0 0 32 32" style="enable-background:new 0 0 32 32;" xml:space="preserve">
<style type="text/css">
	.st0{fill:#FFFFFF;}
</style>
<path id="icon_DMP" class="st0" d="M8.4,14.5c-3.1,0-6.4,0.9-6.4,2.8v7.9C2,27.1,5.3,28,8.4,28s6.4-0.9,6.4-2.8v-7.9
	C14.7,15.4,11.4,14.5,8.4,14.5z M4.9,16.6c2.3-0.6,4.6-0.6,6.9,0c0.5,0.1,0.9,0.3,1.3,0.7c-0.3,0.4-0.8,0.6-1.3,0.7
	c-2.3,0.6-4.6,0.6-6.9,0c-0.5-0.1-0.9-0.3-1.3-0.7C4,16.9,4.4,16.7,4.9,16.6L4.9,16.6z M13.1,25.2c-0.3,0.4-0.8,0.6-1.3,0.7
	c-2.3,0.6-4.6,0.6-6.9,0c-0.5-0.1-0.9-0.3-1.3-0.7v-2c3,1.1,6.4,1.1,9.4,0V25.2L13.1,25.2z M13.1,21.2c-0.3,0.4-0.8,0.6-1.3,0.7
	c-2.3,0.6-4.6,0.6-6.9,0c-0.5-0.1-0.9-0.3-1.3-0.7v-2c3,1.1,6.4,1.1,9.4,0V21.2L13.1,21.2z M23.6,14.5c-3.1,0-6.4,0.9-6.4,2.8v7.9
	c0,1.9,3.3,2.8,6.4,2.8s6.4-0.9,6.4-2.8v-7.9C30,15.4,26.7,14.5,23.6,14.5L23.6,14.5z M20.2,16.6c2.2-0.6,4.6-0.6,6.9,0
	c0.5,0.1,0.9,0.3,1.3,0.7c-0.3,0.4-0.8,0.6-1.3,0.7c-2.2,0.6-4.6,0.6-6.9,0c-0.5-0.1-0.9-0.3-1.3-0.7C19.3,16.9,19.7,16.7,20.2,16.6
	L20.2,16.6z M28.4,25.2c-0.3,0.4-0.8,0.6-1.3,0.7c-2.2,0.6-4.6,0.6-6.9,0c-0.5-0.1-0.9-0.3-1.3-0.7v-2c3,1.1,6.4,1.1,9.4,0V25.2z
	 M28.4,21.2c-0.3,0.4-0.8,0.6-1.3,0.7c-2.2,0.6-4.6,0.6-6.9,0c-0.5-0.1-0.9-0.3-1.3-0.7v-2c3,1.1,6.4,1.1,9.4,0V21.2L28.4,21.2z
	 M24.9,9.3l-0.5,0.5V4H7.5v5.8L7.1,9.3l-1.2,1.2L8.4,13l2.5-2.5L9.7,9.3L9.2,9.8V5.6h13.6v4.2l-0.5-0.5l-1.2,1.2l2.5,2.5l2.5-2.5
	L24.9,9.3z"/>
</svg>
