<?xml version="1.0" encoding="utf-8"?>
<!-- Generator: Adobe Illustrator 19.2.1, SVG Export Plug-In . SVG Version: 6.00 Build 0)  -->
<svg version="1.1" id="Layer_1" xmlns="http://www.w3.org/2000/svg" xmlns:xlink="http://www.w3.org/1999/xlink" x="0px" y="0px"
	 viewBox="0 0 32 32" style="enable-background:new 0 0 32 32;" xml:space="preserve">
<style type="text/css">
	.st0{fill:#FFFFFF;}
</style>
<path id="icon_users" class="st0" d="M8.2,21.7c1.4,0,2.5-1.1,2.5-2.5c0-1.4-1.1-2.5-2.5-2.5s-2.5,1.1-2.5,2.5c0,0,0,0,0,0
	C5.7,20.6,6.8,21.7,8.2,21.7z M8.2,18.2c0.5,0,1,0.4,1,1s-0.4,1-1,1s-1-0.4-1-1c0,0,0,0,0,0C7.2,18.7,7.7,18.2,8.2,18.2z M8.2,23.1
	c-2.3,0-4.2,1.9-4.2,4.2V28h8.4v-0.7C12.4,24.9,10.5,23.1,8.2,23.1z M5.6,26.5c0.4-1.4,1.9-2.3,3.4-1.9c0.9,0.3,1.6,1,1.9,1.9H5.6z
	 M23.8,21.7c1.4,0,2.5-1.1,2.5-2.5c0-1.4-1.1-2.5-2.5-2.5c-1.4,0-2.5,1.1-2.5,2.5c0,0,0,0,0,0C21.3,20.6,22.4,21.7,23.8,21.7z
	 M23.8,18.2c0.5,0,1,0.4,1,1s-0.4,1-1,1s-1-0.4-1-1c0,0,0,0,0,0C22.8,18.7,23.3,18.2,23.8,18.2z M23.8,23.1c-2.3,0-4.2,1.9-4.2,4.2
	V28H28v-0.7C28,24.9,26.1,23.1,23.8,23.1z M21.2,26.5c0.4-1.4,1.9-2.3,3.4-1.9c0.9,0.3,1.6,1,1.9,1.9H21.2z M16,8.9
	c1.4,0,2.5-1.1,2.5-2.5S17.4,4,16,4s-2.5,1.1-2.5,2.5S14.6,8.9,16,8.9C16,8.9,16,8.9,16,8.9L16,8.9z M16,5.5
	c0.5,0.1,0.9,0.5,0.9,1.1c0,0.5-0.4,0.8-0.9,0.9c-0.5,0.1-1-0.3-1.1-0.9s0.3-1,0.9-1.1C15.9,5.5,15.9,5.5,16,5.5z M20.2,14.5
	c0-2.3-1.9-4.2-4.2-4.2c-2.3,0-4.2,1.9-4.2,4.2v0.7h8.4V14.5L20.2,14.5z M13.4,13.8c0.4-1.4,1.9-2.3,3.4-1.9c0.9,0.3,1.6,1,1.9,1.9
	H13.4z M16.7,20.4V17h-1.5v3.4l-2.9,1.7l0.7,1.3l2.9-1.7l2.9,1.7l0.7-1.3L16.7,20.4z"/>
</svg>
