<?xml version="1.0" encoding="utf-8"?>
<!-- Generator: Adobe Illustrator 19.2.1, SVG Export Plug-In . SVG Version: 6.00 Build 0)  -->
<svg version="1.1" id="Layer_1" xmlns="http://www.w3.org/2000/svg" xmlns:xlink="http://www.w3.org/1999/xlink" x="0px" y="0px"
	 viewBox="0 0 48 48" style="enable-background:new 0 0 48 48;" xml:space="preserve">
<style type="text/css">
	.st0{fill:#FFFFFF;}
</style>
<path id="icon_receipts" class="st0" d="M37.1,13.9c-1.1-0.1-2.1-0.4-3.1-0.8c-1.7-0.7-3.5-1-5.3-1.1c-1.6,0-3.3,0.4-4.7,1.2
	c-1.4-0.8-3.1-1.2-4.8-1.2c-1.8,0.1-3.5,0.5-5.2,1.1c-1,0.4-2.1,0.6-3.1,0.8H10V36h0.9c1.3-0.1,2.5-0.4,3.7-0.9
	c1.5-0.6,3.1-0.9,4.7-1c1.2-0.1,2.3,0.4,3.1,1.2l0.3,0.3h2.6l0.2-0.3c0.8-0.8,2-1.3,3.1-1.2c1.6,0.1,3.2,0.4,4.7,1
	c1.2,0.5,2.5,0.8,3.8,0.9H38V13.9H37.1L37.1,13.9z M36.2,15.5v14.9c-0.6-0.1-1.4-0.4-2.2-0.7c-1.7-0.7-3.5-1-5.3-1.1
	c-1.3,0-2.6,0.3-3.9,0.8V14.7c0.8-0.4,1.6-0.8,2.5-0.9v9.1l3.1-1.6l3.2,1.6v-8.1C34.5,15.1,35.3,15.3,36.2,15.5L36.2,15.5z
	 M29.1,13.7c1,0.1,2,0.3,2.9,0.6v5.9l-1.5-0.7l-1.4,0.7V13.7L29.1,13.7z M14.6,14.7c1.5-0.6,3.1-0.9,4.7-1c1.4,0,2.7,0.4,3.9,1v14.7
	c-1.2-0.5-2.5-0.8-3.9-0.8c-1.8,0.1-3.5,0.5-5.2,1.1c-0.8,0.3-1.5,0.5-2.3,0.7V15.5C12.7,15.3,13.6,15,14.6,14.7L14.6,14.7z
	 M19.2,32.4c-1.8,0.1-3.5,0.5-5.2,1.1c-0.8,0.3-1.5,0.5-2.3,0.7V32c1-0.2,1.9-0.4,2.8-0.8c1.5-0.6,3.1-0.9,4.7-1
	c1.4,0,2.7,0.4,3.9,1v2.5C22,32.8,20.6,32.4,19.2,32.4L19.2,32.4z M33.9,33.6c-1.7-0.7-3.5-1-5.3-1.1c-1.4,0-2.8,0.4-3.9,1.3v-2.5
	c1.2-0.7,2.5-1,3.9-1c1.6,0.1,3.2,0.4,4.7,1c0.9,0.3,1.9,0.6,2.8,0.8v2.2C35.6,34.1,34.8,33.8,33.9,33.6L33.9,33.6z"/>
</svg>
