<?xml version="1.0" encoding="utf-8"?>
<!-- Generator: Adobe Illustrator 20.1.0, SVG Export Plug-In . SVG Version: 6.00 Build 0)  -->
<svg version="1.1" id="Layer_1" xmlns="http://www.w3.org/2000/svg" xmlns:xlink="http://www.w3.org/1999/xlink" x="0px" y="0px"
	 viewBox="0 0 48 48" style="enable-background:new 0 0 48 48;" xml:space="preserve">
<path id="lock_x5F_circle_x5F_close" d="M32,16v-4c0-4-3.6-8-8-8s-8,3.6-8,8v4h-6v28h28V16H32z M20,12c0-2.2,1.8-4,4-4s4,2,4,4v4h-8
	V12z M34,40H14V20h20V40z M24,36c3.3,0,6-2.7,6-6s-2.7-6-6-6s-6,2.7-6,6S20.7,36,24,36z M24,28c1.1,0,2,0.9,2,2s-0.9,2-2,2
	s-2-0.9-2-2S22.9,28,24,28z"/>
</svg>
